Lab 3: COVID Wrangling
…
[1] "Date"

colorado_data <- data %>%
  filter(state == "Colorado")

colorado_grouped <- colorado_data %>%
  group_by(county) %>%
  mutate(
  daily_new_cases = cases - lag(cases, order_by = date),
  daily_new_deaths = deaths - lag(deaths, order_by = date)
)

ungroup(colorado_grouped)

# A tibble: 49,527 × 8
   date       county   state fips  cases deaths daily_new_cases daily_new_deaths
   <date>     <chr>    <chr> <chr> <dbl>  <dbl>           <dbl>            <dbl>
 1 2020-03-05 Douglas  Colo… 08035     1      0              NA               NA
 2 2020-03-05 Jeffers… Colo… 08059     1      0              NA               NA
 3 2020-03-06 Denver   Colo… 08031     2      0              NA               NA
 4 2020-03-06 Douglas  Colo… 08035     3      0               2                0
 5 2020-03-06 Eagle    Colo… 08037     1      0              NA               NA
 6 2020-03-06 El Paso  Colo… 08041     1      0              NA               NA
 7 2020-03-06 Jeffers… Colo… 08059     1      0               0                0
 8 2020-03-07 Denver   Colo… 08031     2      0               0                0
 9 2020-03-07 Douglas  Colo… 08035     3      0               0                0
10 2020-03-07 Eagle    Colo… 08037     1      0               0                0
# ℹ 49,517 more rows
…
colorado_grouped <- colorado_data %>%
  group_by(county) %>%
  mutate(
  daily_new_cases = cases - lag(cases, order_by = date),
  daily_new_deaths = deaths - lag(deaths, order_by = date)
)

ungroup(colorado_grouped)

# A tibble: 49,527 × 8
   date       county   state fips  cases deaths daily_new_cases daily_new_deaths
   <date>     <chr>    <chr> <chr> <dbl>  <dbl>           <dbl>            <dbl>
 1 2020-03-05 Douglas  Colo… 08035     1      0              NA               NA
 2 2020-03-05 Jeffers… Colo… 08059     1      0              NA               NA
 3 2020-03-06 Denver   Colo… 08031     2      0              NA               NA
 4 2020-03-06 Douglas  Colo… 08035     3      0               2                0
 5 2020-03-06 Eagle    Colo… 08037     1      0              NA               NA
 6 2020-03-06 El Paso  Colo… 08041     1      0              NA               NA
 7 2020-03-06 Jeffers… Colo… 08059     1      0               0                0
 8 2020-03-07 Denver   Colo… 08031     2      0               0                0
 9 2020-03-07 Douglas  Colo… 08035     3      0               0                0
10 2020-03-07 Eagle    Colo… 08037     1      0               0                0
# ℹ 49,517 more rows
…
[1]      54 9809462

The data range would be 5810855.

colorado_group = inner_join(colorado_grouped, select(pop, fips, pop = POPESTIMATE2021), by =  'fips') %>%
   filter(date == my.date) %>%
   mutate(
    per_capita_cumulative_cases = cases / pop,
    per_capita_new_cases = daily_new_cases / pop,
    per_capita_new_deaths = daily_new_deaths / pop)

select(colorado_group, "COUNTY" = "county")

# A tibble: 64 × 1
# Groups:   COUNTY [64]
   COUNTY    
   <chr>     
 1 Adams     
 2 Alamosa   
 3 Arapahoe  
 4 Archuleta 
 5 Baca      
 6 Bent      
 7 Boulder   
 8 Broomfield
 9 Chaffee   
10 Cheyenne  
# ℹ 54 more rows
…
